// Jest Snapshot v1, https://goo.gl/fbAQLP

exports[`renders correctly 1`] = `
<div
  className="w-100 mb-2 d-flex"
  style={
    Object {
      "flexDirection": "row-reverse",
    }
  }
>
  <img
    alt="user face"
    className="rounded-circle flex-shrink-0 mt-1"
    data-holder-rendered="true"
    height="50"
    src="https://mdbootstrap.com/img/Photos/Avatars/img%20(30).jpg"
  />
  <img
    alt="user-status"
    className="rounded-circle"
    height="20"
    src="https://upload.wikimedia.org/wikipedia/commons/thumb/0/0e/Ski_trail_rating_symbol-green_circle.svg/600px-Ski_trail_rating_symbol-green_circle.svg.png"
    style={
      Object {
        "border": "1px solid white",
        "transform": "translate(80%, 170%)",
      }
    }
  />
  <div
    className="w-100 card"
  >
    <div
      className="card-body"
    >
      <div
        className="mb-1 card-title h5"
      >
        Test user
      </div>
      <div
        className="text-muted mb-1 card-subtitle h6"
      >
        Wed, 21 Dec 2016 23:36:07 GMT
      </div>
      <p
        className="card-text"
      >
        Test message content
      </p>
    </div>
  </div>
</div>
`;
